SATVI Computational Course - 9 Hypothesis testing
…
[1] 1.74e-09

9.10 Multiple testing

9.11 Homework

Install the package DataTidy23RodoSTA2005SAssignment:

install_github("MiguelRodo/DataTidyRodoSTA2005S@410a5247d600ce462e7941065233b634574fca86")

data("data_tidy_yield", package = "DataTidy23RodoSTA2005SAssignment")
data_tidy_yield

# A tibble: 125 × 13
   FarmID  CropYield Rainfall TempC TempF Fertilizer   Sunlight SoilPH WindSpeed
   <chr>       <dbl>    <dbl> <dbl> <dbl> <chr>           <dbl>  <dbl>     <dbl>
 1 Farm001      23.1    150.   19.2  66.5 CornCare        10.7    4.25      2.72
 2 Farm002      28.6     86.9  16.5  61.7 KernelKindle     8.28   3.21      8.71
 3 Farm003      27.5    107.   20.1  68.2 CornCare        10.7    4.61      6.64
 4 Farm004      28.1    141.   29.9  85.8 CornCare        13.0    4.03      1.17
 5 Farm005      28.0     85.0  18.6  65.6 KernelKindle     7.05   5.69      1.40
 6 Farm006      27.6    102.   20.2  68.3 CornCare        10.7    4.81      1.98
 7 Farm007      29.5    184.   23.5  74.2 KernelKindle    10.7    3.25      2.67
 8 Farm008      23.2    170.   28.5  83.3 KernelKindle     5.81   4.16      4.83
 9 Farm009      28.1    185.   22.5  72.4 KernelKindle     7.05   3.42      4.27
10 Farm010      26.1    167.   20.0  68.0 CornCare        10.7    3.04      8.68
# ℹ 115 more rows
# ℹ 4 more variables: DistanceToWater <dbl>, Altitude <dbl>,
#   PesticideApplied <chr>, Irrigation <chr>
…
